…
#### Determining whether the data is tidy:   

#### The data does appear to be tidy, since the variables have their own columns, each observation has its own row, and each value has its own cell.        


```r
deserts
```

```
## # A tibble: 34,786 × 13
##    record_id month   day  year plot_id species_id sex   hindfoot_length weight
##        <dbl> <dbl> <dbl> <dbl>   <dbl> <chr>      <chr>           <dbl>  <dbl>
##  1         1     7    16  1977       2 NL         M                  32     NA
##  2         2     7    16  1977       3 NL         M                  33     NA
##  3         3     7    16  1977       2 DM         F                  37     NA
##  4         4     7    16  1977       7 DM         M                  36     NA
##  5         5     7    16  1977       3 DM         M                  35     NA
##  6         6     7    16  1977       1 PF         M                  14     NA
##  7         7     7    16  1977       2 PE         F                  NA     NA
##  8         8     7    16  1977       1 DM         M                  37     NA
##  9         9     7    16  1977       1 DM         F                  34     NA
## 10        10     7    16  1977       6 PF         F                  20     NA
## # ℹ 34,776 more rows
## # ℹ 4 more variables: genus <chr>, species <chr>, taxa <chr>, plot_type <chr>
```
…
#### There are 26 distinct genera and 40 distinct species represented in the data.     

#### There are 34786 total observations in the `deserts` data set.   


```r
deserts %>% 
  count(species) %>% #finding number of observations for each species
  arrange(n) #arranging from lowest to highest number of observations
```

```
## # A tibble: 40 × 2
##    species          n
##    <chr>        <int>
##  1 clarki           1
##  2 scutalatus       1
##  3 tereticaudus     1
##  4 tigris           1
##  5 uniparens        1
##  6 viridis          1
##  7 leucophrys       2
##  8 savannarum       2
##  9 fuscus           5
## 10 undulatus        5
## # ℹ 30 more rows
```

#### Thus, the species is least frequently sampled in the study are Sceloporus clarki, Crotalus scutalatus, Spermophilus tereticaudus, Cnemidophorus tigris, Cnemidophorus uniparens, Crotalus viridis, each only represented 1 time in the data set.     


```r
deserts %>% 
  count(species) %>% #finding number of observations for each species
  arrange(desc(n)) #arranging from highest to lowest number of observations
```

```
## # A tibble: 40 × 2
##    species          n
##    <chr>        <int>
##  1 merriami     10596
##  2 penicillatus  3123
##  3 ordii         3027
##  4 baileyi       2891
##  5 megalotis     2609
##  6 spectabilis   2504
##  7 torridus      2249
##  8 flavus        1597
##  9 eremicus      1299
## 10 albigula      1252
## # ℹ 30 more rows
```
…
### 7. [Dipodomys merriami](https://en.wikipedia.org/wiki/Merriam's_kangaroo_rat) is the most frequently sampled animal in the study. How have the number of observations of this species changed over the years included in the study?    


```r
deserts %>% 
  filter(species == "merriami") %>% #filtering by Dipodomys merriami, the most frequently sample animal in the study
  group_by(year) %>% 
  summarize(n_observations = n()) #number of observations for each year
```

```
## # A tibble: 26 × 2
##     year n_observations
##    <dbl>          <int>
##  1  1977            264
##  2  1978            389
##  3  1979            209
##  4  1980            493
##  5  1981            559
##  6  1982            609
##  7  1983            528
##  8  1984            396
##  9  1985            667
## 10  1986            406
## # ℹ 16 more rows
```
…
#### Thus, the two species that have, on average, the highest weight are Neotoma albigula and Dipodomys spectabilis.    


```r
top_species_desert <- deserts %>% 
  filter(species == "albigula" | species == "spectabilis") %>% #filtering by the species with the highest average weights
  mutate(weight_to_hindfoot_length_ratio = weight / hindfoot_length) #adding the weight to hindfoot length ratio as a new column
deserts
```

```
## # A tibble: 34,786 × 13
##    record_id month   day  year plot_id species_id sex   hindfoot_length weight
##        <dbl> <dbl> <dbl> <dbl>   <dbl> <chr>      <chr>           <dbl>  <dbl>
##  1         1     7    16  1977       2 NL         M                  32     NA
##  2         2     7    16  1977       3 NL         M                  33     NA
##  3         3     7    16  1977       2 DM         F                  37     NA
##  4         4     7    16  1977       7 DM         M                  36     NA
##  5         5     7    16  1977       3 DM         M                  35     NA
##  6         6     7    16  1977       1 PF         M                  14     NA
##  7         7     7    16  1977       2 PE         F                  NA     NA
##  8         8     7    16  1977       1 DM         M                  37     NA
##  9         9     7    16  1977       1 DM         F                  34     NA
## 10        10     7    16  1977       6 PF         F                  20     NA
## # ℹ 34,776 more rows
## # ℹ 4 more variables: genus <chr>, species <chr>, taxa <chr>, plot_type <chr>
```
…
