…
```r
anyNA(global_sharks)
```

```
## [1] TRUE
```


```r
miss_var_summary(global_sharks)
```

```
## # A tibble: 21 × 3
##    variable n_miss pct_miss
##    <chr>     <int>    <dbl>
##  1 time       3518    51.1 
##  2 species    3118    45.3 
##  3 age        2982    43.3 
##  4 activity    586     8.51
##  5 sex         572     8.30
##  6 location    565     8.20
##  7 area        481     6.98
##  8 date        305     4.43
##  9 name        220     3.19
## 10 year        132     1.92
## # ℹ 11 more rows
```
…
```r
great_white_sharks <- global_sharks %>% 
        filter(str_detect(.$species, "hite shark")) %>% 
        filter(species != "Mr. Burgess of ISAF announced the injury was the bite of a 1.8 m [6'], 2- to 3-year old white shark. Subsequent investigation revealed there was no shark involvem")
```


```r
great_white_sharks %>% 
        count(country) %>% 
        arrange(desc(n))
```

```
## # A tibble: 39 × 2
##    country          n
##    <chr>        <int>
##  1 USA            225
##  2 AUSTRALIA      175
##  3 SOUTH AFRICA   170
##  4 ITALY           26
##  5 NEW ZEALAND     20
##  6 CROATIA         11
##  7 CHILE            6
##  8 GREECE           5
##  9 JAPAN            4
## 10 BRAZIL           3
## # ℹ 29 more rows
```
…
