…
It appears that the NA's (the missing values) are represented by NA, Unknown, and Unkown (which is probably a typo) in this data set.   

### 2. (1 point) Notice that there are some incidents identified as "NOT COUNTED". These should be removed from the data because they were either not sharks, unverified, or were provoked. It's OK to replace the `sharks` object.   


```r
sharks <- sharks %>% 
  filter(incident_num != "NOT COUNTED") #removing incidents identified as "NOT COUNTED" in the data
sharks
```

```
## # A tibble: 202 × 16
##    incident_num month   day  year time    county     location mode  injury depth
##    <chr>        <dbl> <dbl> <dbl> <chr>   <chr>      <chr>    <chr> <chr>  <chr>
##  1 1               10     8  1950 12:00   San Diego  Imperia… Swim… major  surf…
##  2 2                5    27  1952 14:00   San Diego  Imperia… Swim… minor  surf…
##  3 3               12     7  1952 14:00   Monterey   Lovers … Swim… fatal  surf…
##  4 4                2     6  1955 12:00   Monterey   Pacific… Free… minor  surf…
##  5 5                8    14  1956 16:30   San Luis … Pismo B… Swim… major  surf…
##  6 6                4    28  1957 13:30   San Luis … Morro B… Swim… fatal  surf…
##  7 7               10    12  1958 Unknown San Diego  Coronad… Swim… major  surf…
##  8 8                5     7  1959 17:30   San Franc… Baker B… Swim… fatal  surf…
##  9 9                6    14  1959 17:00   San Diego  La Jolla Free… fatal  surf…
## 10 10               7    28  1959 19:30   San Diego  La Jolla Free… minor  surf…
## # ℹ 192 more rows
## # ℹ 6 more variables: species <chr>, comment <chr>, longitude <chr>,
## #   latitude <dbl>, confirmed_source <chr>, wfl_case_number <chr>
```

### 3. (3 points) Are there any "hotspots" for shark incidents in California? Make a plot that shows the total number of incidents per county. Which county has the highest number of incidents?   


```r
sharks %>% 
  group_by(county) %>% 
  summarize(n_incidents = n()) %>% 
  arrange(desc(n_incidents))
```

```
## # A tibble: 21 × 2
##    county          n_incidents
##    <chr>                 <int>
##  1 San Diego                23
##  2 Santa Barbara            19
##  3 Humboldt                 18
##  4 San Mateo                18
##  5 Marin                    16
##  6 Monterey                 15
##  7 Santa Cruz               15
##  8 Sonoma                   15
##  9 San Luis Obispo          14
## 10 Los Angeles               9
## # ℹ 11 more rows
```
…
#### There DOES appear to be months in which more shark injuries occur. The month with the HIGHEST total number of shark incidents appears to be month 10 with 36 incidents.  

### 5. (3 points) How do the number and types of injuries compare by county? Make a table (not a plot) that shows the number of injury types by county. Which county has the highest number of fatalities?   

Table with Number and Types of Injuries by County:   


```r
sharks %>%
  count(injury, county) 
```

```
## # A tibble: 57 × 3
##    injury county                  n
##    <chr>  <chr>               <int>
##  1 fatal  Island - San Miguel     1
##  2 fatal  Los Angeles             1
##  3 fatal  Mendocino               1
##  4 fatal  Monterey                2
##  5 fatal  San Diego               2
##  6 fatal  San Francisco           1
##  7 fatal  San Luis Obispo         3
##  8 fatal  San Mateo               1
##  9 fatal  Santa Barbara           2
## 10 fatal  Santa Cruz              1
## # ℹ 47 more rows
```

Table with Number of Injury Types by County:   


```r
sharks %>%
  group_by(county) %>% 
  summarize(n_injury_types = n_distinct(injury)) #finding only the number of injury types represented for each county in the data
```

```
## # A tibble: 21 × 2
##    county               n_injury_types
##    <chr>                         <int>
##  1 Del Norte                         2
##  2 Humboldt                          3
##  3 Island - Catalina                 2
##  4 Island - Farallones               1
##  5 Island - San Miguel               3
##  6 Island - San Nicolas              1
##  7 Island - Santa Cruz               2
##  8 Island - Santa Rosa               1
##  9 Los Angeles                       3
## 10 Marin                             3
## # ℹ 11 more rows
```
…
