…
#### It appears that the global life expectancy has consistently been INCREASING in the years between 1952 and 2007.    

### 3. How do the distributions of life expectancy compare for the years 1952 and 2007?    


```r
gapminder %>% 
  filter(year == "1952" | year == "2007") %>% #filtering for only data from the years 1952 and 2007
  select(country, continent, year, lifeExp) %>% #selecting only certain columns for ease of viewing
  pivot_wider(names_from = year,
              values_from = lifeExp) #for ease of comparing between the years 1952 and 2007 in the same locations
```

```
## # A tibble: 142 × 4
##    country     continent `1952` `2007`
##    <fct>       <fct>      <dbl>  <dbl>
##  1 Afghanistan Asia        28.8   43.8
##  2 Albania     Europe      55.2   76.4
##  3 Algeria     Africa      43.1   72.3
##  4 Angola      Africa      30.0   42.7
##  5 Argentina   Americas    62.5   75.3
##  6 Australia   Oceania     69.1   81.2
##  7 Austria     Europe      66.8   79.8
##  8 Bahrain     Asia        50.9   75.6
##  9 Bangladesh  Asia        37.5   64.1
## 10 Belgium     Europe      68     79.4
## # ℹ 132 more rows
```
…
```r
gapminder %>% 
  mutate(population_size_category = case_when(pop < 2790000 ~ "very_small",
                                  pop >= 2790000 & pop <= 7020000 ~ "small",
                                  pop >= 7020000 & pop <= 19600000 ~ "medium",
                                  pop >= 19600000 ~ "large"))
```

```
## # A tibble: 1,704 × 7
##    country     continent  year lifeExp      pop gdpPercap population_size_cate…¹
##    <fct>       <fct>     <int>   <dbl>    <int>     <dbl> <chr>                 
##  1 Afghanistan Asia       1952    28.8  8425333      779. medium                
##  2 Afghanistan Asia       1957    30.3  9240934      821. medium                
##  3 Afghanistan Asia       1962    32.0 10267083      853. medium                
##  4 Afghanistan Asia       1967    34.0 11537966      836. medium                
##  5 Afghanistan Asia       1972    36.1 13079460      740. medium                
##  6 Afghanistan Asia       1977    38.4 14880372      786. medium                
##  7 Afghanistan Asia       1982    39.9 12881816      978. medium                
##  8 Afghanistan Asia       1987    40.8 13867957      852. medium                
##  9 Afghanistan Asia       1992    41.7 16317921      649. medium                
## 10 Afghanistan Asia       1997    41.8 22227415      635. large                 
## # ℹ 1,694 more rows
## # ℹ abbreviated name: ¹​population_size_category
```
…
