…
#### Determining if the data is tidy:    

#### Since the variables have their own columns, each observation has its own row, and each value has its own cell, the data appears to be tidy.     


```r
colleges
```

```
## # A tibble: 341 × 10
##    instnm      city  stabbr zip   adm_rate sat_avg pcip26 costt4_a c150_4_pooled
##    <chr>       <chr> <chr>  <chr>    <dbl>   <dbl>  <dbl>    <dbl>         <dbl>
##  1 Grossmont … El C… CA     9202…       NA      NA 0.0016     7956        NA    
##  2 College of… Visa… CA     9327…       NA      NA 0.0066     8109        NA    
##  3 College of… San … CA     9440…       NA      NA 0.0038     8278        NA    
##  4 Ventura Co… Vent… CA     9300…       NA      NA 0.0035     8407        NA    
##  5 Oxnard Col… Oxna… CA     9303…       NA      NA 0.0085     8516        NA    
##  6 Moorpark C… Moor… CA     9302…       NA      NA 0.0151     8577        NA    
##  7 Skyline Co… San … CA     9406…       NA      NA 0          8580         0.233
##  8 Glendale C… Glen… CA     9120…       NA      NA 0.002      9181        NA    
##  9 Citrus Col… Glen… CA     9174…       NA      NA 0.0021     9281        NA    
## 10 Fresno Cit… Fres… CA     93741       NA      NA 0.0324     9370        NA    
## # ℹ 331 more rows
## # ℹ 1 more variable: pftftug1_ef <dbl>
```

#### 2. Which cities in California have the highest number of colleges?    


```r
colleges %>% 
  group_by(city) %>% #grouping by the variable city
  summarise(number_colleges = n()) %>% #finding the number of colleges per city
  arrange(desc(number_colleges)) #arranging from highest to lowest number of colleges in a city
```

```
## # A tibble: 161 × 2
##    city          number_colleges
##    <chr>                   <int>
##  1 Los Angeles                24
##  2 San Diego                  18
##  3 San Francisco              15
##  4 Sacramento                 10
##  5 Berkeley                    9
##  6 Oakland                     9
##  7 Claremont                   7
##  8 Pasadena                    6
##  9 Fresno                      5
## 10 Irvine                      5
## # ℹ 151 more rows
```
…
### 4. The column `COSTT4_A` is the annual cost of each institution. Which city has the highest average cost? Where is it located?   


```r
colleges %>% 
  group_by(city) %>% #grouping by the variable city
  summarise(average_cost = mean(costt4_a, na.rm = T)) %>% #finding the average cost of institutions in each city
  arrange(desc(average_cost)) #arranging from highest to lowest average cost
```

```
## # A tibble: 161 × 2
##    city                average_cost
##    <chr>                      <dbl>
##  1 Claremont                  66498
##  2 Malibu                     66152
##  3 Valencia                   64686
##  4 Orange                     64501
##  5 Redlands                   61542
##  6 Moraga                     61095
##  7 Atherton                   56035
##  8 Thousand Oaks              54373
##  9 Rancho Palos Verdes        50758
## 10 La Verne                   50603
## # ℹ 151 more rows
```
…
