…
#### 2. Notice that we have some neutral superheros! Who are they? List their names below.  


```r
superhero_info %>% 
  select(name, alignment) %>% 
  filter(alignment == "neutral")
```

```
## # A tibble: 24 × 2
##    name         alignment
##    <chr>        <chr>    
##  1 Bizarro      neutral  
##  2 Black Flash  neutral  
##  3 Captain Cold neutral  
##  4 Copycat      neutral  
##  5 Deadpool     neutral  
##  6 Deathstroke  neutral  
##  7 Etrigan      neutral  
##  8 Galactus     neutral  
##  9 Gladiator    neutral  
## 10 Indigo       neutral  
## # ℹ 14 more rows
```
…
## `superhero_info`  

#### 3. Let's say we are only interested in the variables name, alignment, and "race". How would you isolate these variables from `superhero_info`?

I selected the three desired variables name, alignment, and "race" with the select() function.


```r
superhero_info %>% 
  select(name, alignment, race)
```

```
## # A tibble: 734 × 3
##    name          alignment race             
##    <chr>         <chr>     <chr>            
##  1 A-Bomb        good      Human            
##  2 Abe Sapien    good      Icthyo Sapien    
##  3 Abin Sur      good      Ungaran          
##  4 Abomination   bad       Human / Radiation
##  5 Abraxas       bad       Cosmic Entity    
##  6 Absorbing Man bad       Human            
##  7 Adam Monroe   good      <NA>             
##  8 Adam Strange  good      Human            
##  9 Agent 13      good      <NA>             
## 10 Agent Bob     good      Human            
## # ℹ 724 more rows
```


## Not Human   

#### 4. List all of the superheros that are not human.


```r
superhero_info %>% 
  filter(race != "Human", race != "Human / Radiation", race != "Human / Clone", race != "Human / Cosmic", race != "Human / Altered")
```

```
## # A tibble: 205 × 10
##    name  gender eye_color race  hair_color height publisher skin_color alignment
##    <chr> <chr>  <chr>     <chr> <chr>       <dbl> <chr>     <chr>      <chr>    
##  1 Abe … Male   blue      Icth… No Hair       191 Dark Hor… blue       good     
##  2 Abin… Male   blue      Unga… No Hair       185 DC Comics red        good     
##  3 Abra… Male   blue      Cosm… Black          NA Marvel C… <NA>       bad      
##  4 Ajax  Male   brown     Cybo… Black         193 Marvel C… <NA>       bad      
##  5 Alien Male   <NA>      Xeno… No Hair       244 Dark Hor… black      bad      
##  6 Amazo Male   red       Andr… <NA>          257 DC Comics <NA>       bad      
##  7 Angel Male   <NA>      Vamp… <NA>           NA Dark Hor… <NA>       good     
##  8 Ange… Female yellow    Muta… Black         165 Marvel C… <NA>       good     
##  9 Anti… Male   yellow    God … No Hair        61 DC Comics <NA>       bad      
## 10 Anti… Male   blue      Symb… Blond         229 Marvel C… <NA>       <NA>     
## # ℹ 195 more rows
## # ℹ 1 more variable: weight <dbl>
```

## Good and Evil    

#### 5. Let's make two different data frames, one focused on the "good guys" and another focused on the "bad guys".   

Good Guys Data Frame:


```r
good_guys <- filter(superhero_info, alignment == "good")
good_guys
```

```
## # A tibble: 496 × 10
##    name  gender eye_color race  hair_color height publisher skin_color alignment
##    <chr> <chr>  <chr>     <chr> <chr>       <dbl> <chr>     <chr>      <chr>    
##  1 A-Bo… Male   yellow    Human No Hair       203 Marvel C… <NA>       good     
##  2 Abe … Male   blue      Icth… No Hair       191 Dark Hor… blue       good     
##  3 Abin… Male   blue      Unga… No Hair       185 DC Comics red        good     
##  4 Adam… Male   blue      <NA>  Blond          NA NBC - He… <NA>       good     
##  5 Adam… Male   blue      Human Blond         185 DC Comics <NA>       good     
##  6 Agen… Female blue      <NA>  Blond         173 Marvel C… <NA>       good     
##  7 Agen… Male   brown     Human Brown         178 Marvel C… <NA>       good     
##  8 Agen… Male   <NA>      <NA>  <NA>          191 Marvel C… <NA>       good     
##  9 Alan… Male   blue      <NA>  Blond         180 DC Comics <NA>       good     
## 10 Alex… Male   <NA>      <NA>  <NA>           NA NBC - He… <NA>       good     
## # ℹ 486 more rows
## # ℹ 1 more variable: weight <dbl>
```

Bad Guys Data frame:


```r
bad_guys <- filter(superhero_info, alignment == "bad")
bad_guys
```

```
## # A tibble: 207 × 10
##    name  gender eye_color race  hair_color height publisher skin_color alignment
##    <chr> <chr>  <chr>     <chr> <chr>       <dbl> <chr>     <chr>      <chr>    
##  1 Abom… Male   green     Huma… No Hair       203 Marvel C… <NA>       bad      
##  2 Abra… Male   blue      Cosm… Black          NA Marvel C… <NA>       bad      
##  3 Abso… Male   blue      Human No Hair       193 Marvel C… <NA>       bad      
##  4 Air-… Male   blue      <NA>  White         188 Marvel C… <NA>       bad      
##  5 Ajax  Male   brown     Cybo… Black         193 Marvel C… <NA>       bad      
##  6 Alex… Male   <NA>      Human <NA>           NA Wildstorm <NA>       bad      
##  7 Alien Male   <NA>      Xeno… No Hair       244 Dark Hor… black      bad      
##  8 Amazo Male   red       Andr… <NA>          257 DC Comics <NA>       bad      
##  9 Ammo  Male   brown     Human Black         188 Marvel C… <NA>       bad      
## 10 Ange… Female <NA>      <NA>  <NA>           NA Image Co… <NA>       bad      
## # ℹ 197 more rows
## # ℹ 1 more variable: weight <dbl>
```
…
